<?xml version="1.0" encoding="utf-8"?>
<!-- Generator: Adobe Illustrator 21.1.0, SVG Export Plug-In . SVG Version: 6.00 Build 0)  -->
<svg version="1.1" id="Layer_1" xmlns="http://www.w3.org/2000/svg" xmlns:xlink="http://www.w3.org/1999/xlink" x="0px" y="0px"
	 viewBox="0 0 84 84" style="enable-background:new 0 0 84 84;" xml:space="preserve">
<style type="text/css">
	.st0{fill-rule:evenodd;clip-rule:evenodd;fill:#178243;}
</style>
<path class="st0" d="M10.7,44.5l5.7,14.9c0,0.2,0.2,0.3,0.4,0.4c0.2,0.1,0.4,0,0.5-0.1c5.4-3.5,10.2-6.3,17.3-6.3
	c9.8,0,18.6,4,24.7,10.3c0.1,0.1,0.3,0.2,0.5,0.2l10.8-1c0.2,0,0.4-0.2,0.5-0.4c2.8-9.8,7.1-18.8,1.6-25.3
	c-8.9-10.5-7.6-16.6-12.9-24.9c-0.1-0.2-0.4-0.3-0.6-0.3c-0.2,0.1-0.4,0.2-0.5,0.5c-0.6,3.8-1.5,7.6-3.2,11.4
	c-0.1,0.2-0.2,0.3-0.4,0.3c-0.2,0.1-0.3,0-0.5-0.1c-4.9-3.1-8.1-3.3-7.5-9c0-0.2,0-0.3-0.1-0.5c-0.1-0.1-0.3-0.2-0.4-0.2
	c-5.9,0.1-7.5,0.9-9.5,4.4c-0.1,0.3-0.5,0.4-0.7,0.2c-2.9-1.3-4.3-1.2-7.5,1.3c-2.8,2.1-4.8,5-7.5,7.2c-2.5,2-5.9,3.2-8.4,5.3
	C10.1,35.2,10,41.6,10.7,44.5L10.7,44.5z M66.2,73.3c2.1-0.7,2.6-2.7,3.4-5.5c0.1-0.2,0-0.4-0.1-0.5C69.4,67.1,69.2,67,69,67
	l-5.5,0.5c-0.2,0-0.4,0.1-0.5,0.3c-0.1,0.2-0.1,0.4,0,0.6c0.9,1.4,1.7,3,2.4,4.5C65.6,73.3,65.9,73.4,66.2,73.3z"/>
</svg>
