<?xml version="1.0" encoding="utf-8"?>
<!-- Generator: Adobe Illustrator 21.1.0, SVG Export Plug-In . SVG Version: 6.00 Build 0)  -->
<svg version="1.1" id="Layer_1" xmlns="http://www.w3.org/2000/svg" xmlns:xlink="http://www.w3.org/1999/xlink" x="0px" y="0px"
	 viewBox="0 0 24 24" style="enable-background:new 0 0 24 24;" xml:space="preserve">
<style type="text/css">
	.st0{fill:#1C8343;}
</style>
<path class="st0" d="M15.8,7.5C10.7,10.3,3.1,16.7,0,23h2.9c0.8-2,2.5-4.5,3.9-5.9C15.2,20.8,24,14.3,24,5.8c0-1.5-0.3-3.1-0.9-4.8
	c-2.3,3.1-5.6,1.1-10.9,1.6C4.6,3.5,1.1,9.4,3.5,14.2C7,10.7,13,7.8,15.8,7.5z"/>
</svg>
